<?xml version="1.0" encoding="UTF-8"?>
<svg width="15px" height="14px" viewBox="0 0 15 14" version="1.1" xmlns="http://www.w3.org/2000/svg" xmlns:xlink="http://www.w3.org/1999/xlink">
    <!-- Generator: Sketch 51.3 (57544) - http://www.bohemiancoding.com/sketch -->
    <title>Artboard</title>
    <desc>Created with Sketch.</desc>
    <defs></defs>
    <g id="Artboard" stroke="none" stroke-width="1" fill="none" fill-rule="evenodd">
        <path d="M14.3498279,6.54748549 C13.9905705,6.54748549 13.6992907,6.8208118 13.6992907,7.15758274 C13.6992907,8.72826593 12.3379136,10.006418 10.6636939,10.006418 L3.40362539,10.006418 L5.24851972,8.275237 C5.50252162,8.03723391 5.50252162,7.6507361 5.24851972,7.41204713 C4.99451783,7.17335816 4.58299821,7.1737011 4.32863085,7.41204713 L1.37380305,10.1847488 C1.34383448,10.2128702 1.31678968,10.2440781 1.29266863,10.2773437 C1.28718658,10.2855743 1.28316641,10.2951767 1.27768435,10.3034074 C1.26160366,10.3287852 1.24515749,10.354506 1.23309697,10.3822845 C1.22761491,10.3946305 1.22505662,10.4083482 1.22030551,10.4210372 C1.21153422,10.4457291 1.20130105,10.4700781 1.19581899,10.4961419 C1.18741317,10.5355804 1.18266206,10.5757049 1.18266206,10.6168581 C1.18266206,10.6576685 1.18741317,10.6981359 1.19581899,10.7375744 C1.20130105,10.7636381 1.21116875,10.7879872 1.22030551,10.8126791 C1.22505662,10.825711 1.22761491,10.8390858 1.23309697,10.8517747 C1.24552296,10.8792102 1.26160366,10.9045881 1.27768435,10.9303089 C1.28316641,10.9388825 1.28718658,10.948142 1.29266863,10.9563726 C1.31678968,10.9896382 1.34383448,11.0205031 1.37380305,11.0486245 L4.32826538,13.8213262 C4.45508359,13.9403278 4.6213726,14 4.78802708,14 C4.95431609,14 5.12097057,13.9403278 5.24778878,13.8213262 C5.50179068,13.5829802 5.50179068,13.1968253 5.24778878,12.9577934 L3.40362539,11.2272983 L10.6636939,11.2272983 C13.054601,11.2272983 14.9999997,9.40146486 14.9999997,7.15792568 C15.0003651,6.8208118 14.7090853,6.54748549 14.3498279,6.54748549 M4.3366712,3.99323911 L11.5967397,3.99323911 L9.7518454,5.72442006 C9.49784351,5.96242314 9.49784351,6.34892095 9.7518454,6.58726698 C9.87902908,6.70661147 10.0453181,6.76628371 10.2116071,6.76628371 C10.3782616,6.76628371 10.5445506,6.70661147 10.6717343,6.58726698 L13.6265621,3.81456532 C13.6565306,3.78644392 13.6835754,3.75523602 13.707331,3.72265635 C13.7131785,3.7137398 13.7175642,3.70413737 13.7230462,3.69522083 C13.7391269,3.66984298 13.7552076,3.64480807 13.7672682,3.6177155 C13.7727502,3.60468363 13.775674,3.59096588 13.7804251,3.57793401 C13.7891964,3.55358499 13.7990641,3.52923597 13.8045461,3.50351518 C13.8133174,3.46407662 13.8177031,3.42395218 13.8177031,3.38279891 C13.8177031,3.34164564 13.8133174,3.3015212 13.8045461,3.26208265 C13.7990641,3.23636185 13.7895619,3.21201284 13.7804251,3.18766382 C13.775674,3.17463195 13.7731157,3.16091419 13.7672682,3.14822527 C13.7552076,3.12113269 13.7394924,3.09609779 13.7230462,3.07037699 C13.7175642,3.0618034 13.7131785,3.05220097 13.707331,3.04328442 C13.6835754,3.01036181 13.6565306,2.97915391 13.6265621,2.95103251 L10.6720997,0.179016731 C10.4184633,-0.0596722436 10.0065782,-0.0596722436 9.75221087,0.179016731 C9.49857445,0.417019817 9.49857445,0.803517625 9.75221087,1.04186366 L11.5967397,2.77270166 L4.3366712,2.77270166 C1.94576415,2.77270166 0,4.5981922 0,6.84173138 C0,7.1791882 0.291279871,7.45251451 0.650537227,7.45251451 C1.00979458,7.45251451 1.30107445,7.1791882 1.30107445,6.84173138 C1.30107445,5.27104818 2.66281698,3.99323911 4.3366712,3.99323911" id="Fill-1-Copy" fill="#ADB2B6"></path>
    </g>
</svg>